REFERENCE_FILES/nandland VGa/dump.vcd
$date
	Sun Jul 14 11:45:28 2024
$end
$version
	Icarus Verilog
$end
$timescale
	1ns
$end
$scope module VGA_Sync_Porch $end
$var wire 3 ! i_Blu_Video [2:0] $end
$var wire 1 " i_Clk $end
$var wire 3 # i_Grn_Video [2:0] $end
$var wire 1 $ i_HSync $end
$var wire 3 % i_Red_Video [2:0] $end
$var wire 1 & i_VSync $end
$var wire 1 ' w_VSync $end
$var wire 10 ( w_Row_Count [9:0] $end
$var wire 1 ) w_HSync $end
$var wire 10 * w_Col_Count [9:0] $end
$var parameter 32 + ACTIVE_COLS $end
$var parameter 32 , ACTIVE_ROWS $end
$var parameter 32 - TOTAL_COLS $end
$var parameter 32 . TOTAL_ROWS $end
$var parameter 32 / VIDEO_WIDTH $end
$var parameter 32 0 c_BACK_PORCH_HORZ $end
$var parameter 32 1 c_BACK_PORCH_VERT $end
$var parameter 32 2 c_FRONT_PORCH_HORZ $end
$var parameter 32 3 c_FRONT_PORCH_VERT $end
$var reg 3 4 o_Blu_Video [2:0] $end
$var reg 3 5 o_Grn_Video [2:0] $end
$var reg 1 6 o_HSync $end
$var reg 3 7 o_Red_Video [2:0] $end
$var reg 1 8 o_VSync $end
$var reg 3 9 r_Blu_Video [2:0] $end
$var reg 3 : r_Grn_Video [2:0] $end
$var reg 3 ; r_Red_Video [2:0] $end
$scope module UUT $end
$var wire 1 " i_Clk $end
$var wire 1 $ i_HSync $end
$var wire 1 & i_VSync $end
$var wire 1 < w_Frame_Start $end
$var parameter 32 = TOTAL_COLS $end
$var parameter 32 > TOTAL_ROWS $end
$var reg 10 ? o_Col_Count [9:0] $end
$var reg 1 ) o_HSync $end
$var reg 10 @ o_Row_Count [9:0] $end
$var reg 1 ' o_VSync $end
$upscope $end
$upscope $end
$scope module VGA_Test_Pattterns_TB $end
$var wire 1 A w_VSync_TP $end
$var wire 1 B w_VSync_Start $end
$var wire 3 C w_Red_Video_TP [2:0] $end
$var wire 1 D w_HSync_TP $end
$var wire 1 E w_HSync_Start $end
$var wire 3 F w_Grn_Video_TP [2:0] $end
$var wire 3 G w_Blu_Video_TP [2:0] $end
$var parameter 32 H c_ACTIVE_COLS $end
$var parameter 32 I c_ACTIVE_ROWS $end
$var parameter 32 J c_TOTAL_COLS $end
$var parameter 32 K c_TOTAL_ROWS $end
$var parameter 32 L c_VIDEO_WIDTH $end
$var reg 1 M r_Clk $end
$scope module Test_Pattern_Gen_Inst $end
$var wire 1 M i_Clk $end
$var wire 4 N i_Pattern [3:0] $end
$var wire 7 O w_Bar_Width [6:0] $end
$var wire 1 P w_VSync $end
$var wire 10 Q w_Row_Count [9:0] $end
$var wire 1 R w_HSync $end
$var wire 10 S w_Col_Count [9:0] $end
$var wire 3 T w_Bar_Select [2:0] $end
$var wire 1 B i_VSync $end
$var wire 1 E i_HSync $end
$var parameter 32 U ACTIVE_COLS $end
$var parameter 32 V ACTIVE_ROWS $end
$var parameter 32 W TOTAL_COLS $end
$var parameter 32 X TOTAL_ROWS $end
$var parameter 32 Y VIDEO_WIDTH $end
$var reg 3 Z o_Blu_Video [2:0] $end
$var reg 3 [ o_Grn_Video [2:0] $end
$var reg 1 D o_HSync $end
$var reg 3 \ o_Red_Video [2:0] $end
$var reg 1 A o_VSync $end
$scope module UUT $end
$var wire 1 M i_Clk $end
$var wire 1 ] w_Frame_Start $end
$var wire 1 B i_VSync $end
$var wire 1 E i_HSync $end
$var parameter 32 ^ TOTAL_COLS $end
$var parameter 32 _ TOTAL_ROWS $end
$var reg 10 ` o_Col_Count [9:0] $end
$var reg 1 R o_HSync $end
$var reg 10 a o_Row_Count [9:0] $end
$var reg 1 P o_VSync $end
$upscope $end
$upscope $end
$scope module VGA_Sync_Pulses_Inst $end
$var wire 1 M i_Clk $end
$var wire 1 B o_VSync $end
$var wire 1 E o_HSync $end
$var parameter 32 b ACTIVE_COLS $end
$var parameter 32 c ACTIVE_ROWS $end
$var parameter 32 d TOTAL_COLS $end
$var parameter 32 e TOTAL_ROWS $end
$var reg 10 f o_Col_Count [9:0] $end
$var reg 10 g o_Row_Count [9:0] $end
$upscope $end
$upscope $end
$enddefinitions $end
$comment Show the parameter values. $end
$dumpall
b110 e
b1010 d
b100 c
b1000 b
b110 _
b1010 ^
b11 Y
b110 X
b1010 W
b100 V
b1000 U
b11 L
b110 K
b1010 J
b100 I
b1000 H
b11 >
b11 =
b1010 3
b10010 2
b100001 1
b110010 0
b11 /
b11 .
b11 -
b10 ,
b10 +
$end
#0
$dumpvars
b0 g
b0 f
b0 a
b0 `
1]
bx \
bx [
bx Z
b0 T
b0 S
0R
b0 Q
0P
b1 O
b101 N
0M
bx G
bx F
1E
0D
bx C
1B
0A
b0 @
b0 ?
x<
b0 ;
b0 :
b0 9
x8
bx 7
x6
bx 5
bx 4
b0 *
0)
b0 (
0'
z&
bz %
z$
bz #
z"
bz !
$end
#20
0]
b1 f
1R
1P
b0 G
b0 Z
b0 F
b0 [
b0 C
b0 \
1M
#40
0M
#60
b1 T
1D
1A
b1 S
b1 `
b10 f
1M
#80
0M
#100
b10 T
b11 f
b10 S
b10 `
b111 G
b111 Z
1M
#120
0M
#140
b11 T
b0 G
b0 Z
b111 F
b111 [
b11 S
b11 `
b100 f
1M
#160
0M
#180
b100 T
b101 f
b100 S
b100 `
b111 G
b111 Z
1M
#200
0M
#220
b101 T
b0 G
b0 Z
b0 F
b0 [
b111 C
b111 \
b101 S
b101 `
b110 f
1M
#240
0M
#260
b110 T
b111 f
b110 S
b110 `
b111 G
b111 Z
1M
#280
0M
#300
b111 T
0E
b0 G
b0 Z
b111 F
b111 [
b111 S
b111 `
b1000 f
1M
#320
0M
#340
b1001 f
0R
b1000 S
b1000 `
b111 G
b111 Z
1M
#360
0M
#380
1E
0D
b1001 S
b1001 `
b1 g
b0 f
1M
#400
0M
#420
b0 T
b1 f
1R
b0 S
b0 `
b1 Q
b1 a
1M
#440
0M
#460
b1 T
b0 G
b0 Z
b0 F
b0 [
b0 C
b0 \
1D
b1 S
b1 `
b10 f
1M
#480
0M
#500
b10 T
b11 f
b10 S
b10 `
b111 G
b111 Z
1M
#520
0M
#540
b11 T
b0 G
b0 Z
b111 F
b111 [
b11 S
b11 `
b100 f
1M
#560
0M
#580
b100 T
b101 f
b100 S
b100 `
b111 G
b111 Z
1M
#600
0M
#620
b101 T
b0 G
b0 Z
b0 F
b0 [
b111 C
b111 \
b101 S
b101 `
b110 f
1M
#640
0M
#660
b110 T
b111 f
b110 S
b110 `
b111 G
b111 Z
1M
#680
0M
#700
b111 T
0E
b0 G
b0 Z
b111 F
b111 [
b111 S
b111 `
b1000 f
1M
#720
0M
#740
b1001 f
0R
b1000 S
b1000 `
b111 G
b111 Z
1M
#760
0M
#780
1E
0D
b1001 S
b1001 `
b10 g
b0 f
1M
#800
0M
#820
b0 T
b1 f
1R
b0 S
b0 `
b10 Q
b10 a
1M
#840
0M
#860
b1 T
b0 G
b0 Z
b0 F
b0 [
b0 C
b0 \
1D
b1 S
b1 `
b10 f
1M
#880
0M
#900
b10 T
b11 f
b10 S
b10 `
b111 G
b111 Z
1M
#920
0M
#940
b11 T
b0 G
b0 Z
b111 F
b111 [
b11 S
b11 `
b100 f
1M
#960
0M
#980
b100 T
b101 f
b100 S
b100 `
b111 G
b111 Z
1M
#1000
0M
#1020
b101 T
b0 G
b0 Z
b0 F
b0 [
b111 C
b111 \
b101 S
b101 `
b110 f
1M
#1040
0M
#1060
b110 T
b111 f
b110 S
b110 `
b111 G
b111 Z
1M
#1080
0M
#1100
b111 T
0E
b0 G
b0 Z
b111 F
b111 [
b111 S
b111 `
b1000 f
1M
#1120
0M
#1140
b1001 f
0R
b1000 S
b1000 `
b111 G
b111 Z
1M
#1160
0M
#1180
1E
0D
b1001 S
b1001 `
b11 g
b0 f
1M
#1200
0M
#1220
b0 T
b1 f
1R
b0 S
b0 `
b11 Q
b11 a
1M
#1240
0M
#1260
b1 T
b0 G
b0 Z
b0 F
b0 [
b0 C
b0 \
1D
b1 S
b1 `
b10 f
1M
#1280
0M
#1300
b10 T
b11 f
b10 S
b10 `
b111 G
b111 Z
1M
#1320
0M
#1340
b11 T
b0 G
b0 Z
b111 F
b111 [
b11 S
b11 `
b100 f
1M
#1360
0M
#1380
b100 T
b101 f
b100 S
b100 `
b111 G
b111 Z
1M
#1400
0M
#1420
b101 T
b0 G
b0 Z
b0 F
b0 [
b111 C
b111 \
b101 S
b101 `
b110 f
1M
#1440
0M
#1460
b110 T
b111 f
b110 S
b110 `
b111 G
b111 Z
1M
#1480
0M
#1500
b111 T
0E
b0 G
b0 Z
b111 F
b111 [
b111 S
b111 `
b1000 f
1M
#1520
0M
#1540
b1001 f
0R
b1000 S
b1000 `
b111 G
b111 Z
1M
#1560
0M
#1580
0B
1E
0D
b1001 S
b1001 `
b100 g
b0 f
1M
#1600
0M
#1620
b0 T
b1 f
1R
0P
b0 S
b0 `
b100 Q
b100 a
1M
#1640
0M
#1660
b1 T
b0 G
b0 Z
b0 F
b0 [
b0 C
b0 \
1D
0A
b1 S
b1 `
b10 f
1M
#1680
0M
#1700
b10 T
b11 f
b10 S
b10 `
b111 G
b111 Z
1M
#1720
0M
#1740
b11 T
b0 G
b0 Z
b111 F
b111 [
b11 S
b11 `
b100 f
1M
#1760
0M
#1780
b100 T
b101 f
b100 S
b100 `
b111 G
b111 Z
1M
#1800
0M
#1820
b101 T
b0 G
b0 Z
b0 F
b0 [
b111 C
b111 \
b101 S
b101 `
b110 f
1M
#1840
0M
#1860
b110 T
b111 f
b110 S
b110 `
b111 G
b111 Z
1M
#1880
0M
#1900
b111 T
0E
b0 G
b0 Z
b111 F
b111 [
b111 S
b111 `
b1000 f
1M
#1920
0M
#1940
b1001 f
0R
b1000 S
b1000 `
b111 G
b111 Z
1M
#1960
0M
#1980
1E
0D
b1001 S
b1001 `
b101 g
b0 f
1M
#2000
0M
#2020
b0 T
b1 f
1R
b0 S
b0 `
b101 Q
b101 a
1M
#2040
0M
#2060
b1 T
b0 G
b0 Z
b0 F
b0 [
b0 C
b0 \
1D
b1 S
b1 `
b10 f
1M
#2080
0M
#2100
b10 T
b11 f
b10 S
b10 `
b111 G
b111 Z
1M
#2120
0M
#2140
b11 T
b0 G
b0 Z
b111 F
b111 [
b11 S
b11 `
b100 f
1M
#2160
0M
#2180
b100 T
b101 f
b100 S
b100 `
b111 G
b111 Z
1M
#2200
0M
#2220
b101 T
b0 G
b0 Z
b0 F
b0 [
b111 C
b111 \
b101 S
b101 `
b110 f
1M
#2240
0M
#2260
b110 T
b111 f
b110 S
b110 `
b111 G
b111 Z
1M
#2280
0M
#2300
b111 T
0E
b0 G
b0 Z
b111 F
b111 [
b111 S
b111 `
b1000 f
1M
#2320
0M
#2340
b1001 f
0R
b1000 S
b1000 `
b111 G
b111 Z
1M
#2360
0M
#2380
1]
1B
1E
0D
b1001 S
b1001 `
b0 g
b0 f
1M
#2400
0M
#2420
0]
b0 T
b1 f
1R
1P
b0 Q
b0 a
b0 S
b0 `
1M
#2440
0M
#2460
b1 T
b0 G
b0 Z
b0 F
b0 [
b0 C
b0 \
1D
1A
b1 S
b1 `
b10 f
1M
#2480
0M
#2500
b10 T
b11 f
b10 S
b10 `
b111 G
b111 Z
1M
#2520
0M
#2540
b11 T
b0 G
b0 Z
b111 F
b111 [
b11 S
b11 `
b100 f
1M
#2560
0M
#2580
b100 T
b101 f
b100 S
b100 `
b111 G
b111 Z
1M
#2600
0M
#2620
b101 T
b0 G
b0 Z
b0 F
b0 [
b111 C
b111 \
b101 S
b101 `
b110 f
1M
#2640
0M
#2660
b110 T
b111 f
b110 S
b110 `
b111 G
b111 Z
1M
#2680
0M
#2700
b111 T
0E
b0 G
b0 Z
b111 F
b111 [
b111 S
b111 `
b1000 f
1M
#2720
0M
#2740
b1001 f
0R
b1000 S
b1000 `
b111 G
b111 Z
1M
#2760
0M
#2780
1E
0D
b1001 S
b1001 `
b1 g
b0 f
1M
#2800
0M
#2820
b0 T
b1 f
1R
b0 S
b0 `
b1 Q
b1 a
1M
#2840
0M
#2860
b1 T
b0 G
b0 Z
b0 F
b0 [
b0 C
b0 \
1D
b1 S
b1 `
b10 f
1M
#2880
0M
#2900
b10 T
b11 f
b10 S
b10 `
b111 G
b111 Z
1M
#2920
0M
#2940
b11 T
b0 G
b0 Z
b111 F
b111 [
b11 S
b11 `
b100 f
1M
#2960
0M
#2980
b100 T
b101 f
b100 S
b100 `
b111 G
b111 Z
1M
#3000
0M
#3020
b101 T
b0 G
b0 Z
b0 F
b0 [
b111 C
b111 \
b101 S
b101 `
b110 f
1M
#3040
0M
#3060
b110 T
b111 f
b110 S
b110 `
b111 G
b111 Z
1M
#3080
0M
#3100
b111 T
0E
b0 G
b0 Z
b111 F
b111 [
b111 S
b111 `
b1000 f
1M
#3120
0M
#3140
b1001 f
0R
b1000 S
b1000 `
b111 G
b111 Z
1M
#3160
0M
#3180
1E
0D
b1001 S
b1001 `
b10 g
b0 f
1M
#3200
0M
#3220
b0 T
b1 f
1R
b0 S
b0 `
b10 Q
b10 a
1M
#3240
0M
#3260
b1 T
b0 G
b0 Z
b0 F
b0 [
b0 C
b0 \
1D
b1 S
b1 `
b10 f
1M
#3280
0M
#3300
b10 T
b11 f
b10 S
b10 `
b111 G
b111 Z
1M
#3320
0M
#3340
b11 T
b0 G
b0 Z
b111 F
b111 [
b11 S
b11 `
b100 f
1M
#3360
0M
#3380
b100 T
b101 f
b100 S
b100 `
b111 G
b111 Z
1M
#3400
0M
#3420
b101 T
b0 G
b0 Z
b0 F
b0 [
b111 C
b111 \
b101 S
b101 `
b110 f
1M
#3440
0M
#3460
b110 T
b111 f
b110 S
b110 `
b111 G
b111 Z
1M
#3480
0M
#3500
b111 T
0E
b0 G
b0 Z
b111 F
b111 [
b111 S
b111 `
b1000 f
1M
#3520
0M
#3540
b1001 f
0R
b1000 S
b1000 `
b111 G
b111 Z
1M
#3560
0M
#3580
1E
0D
b1001 S
b1001 `
b11 g
b0 f
1M
#3600
0M
#3620
b0 T
b1 f
1R
b0 S
b0 `
b11 Q
b11 a
1M
#3640
0M
#3660
b1 T
b0 G
b0 Z
b0 F
b0 [
b0 C
b0 \
1D
b1 S
b1 `
b10 f
1M
#3680
0M
#3700
b10 T
b11 f
b10 S
b10 `
b111 G
b111 Z
1M
#3720
0M
#3740
b11 T
b0 G
b0 Z
b111 F
b111 [
b11 S
b11 `
b100 f
1M
#3760
0M
#3780
b100 T
b101 f
b100 S
b100 `
b111 G
b111 Z
1M
#3800
0M
#3820
b101 T
b0 G
b0 Z
b0 F
b0 [
b111 C
b111 \
b101 S
b101 `
b110 f
1M
#3840
0M
#3860
b110 T
b111 f
b110 S
b110 `
b111 G
b111 Z
1M
#3880
0M
#3900
b111 T
0E
b0 G
b0 Z
b111 F
b111 [
b111 S
b111 `
b1000 f
1M
#3920
0M
#3940
b1001 f
0R
b1000 S
b1000 `
b111 G
b111 Z
1M
#3960
0M
#3980
0B
1E
0D
b1001 S
b1001 `
b100 g
b0 f
1M
#4000
0M
#4020
b0 T
b1 f
1R
0P
b0 S
b0 `
b100 Q
b100 a
1M
#4040
0M
#4060
b1 T
b0 G
b0 Z
b0 F
b0 [
b0 C
b0 \
1D
0A
b1 S
b1 `
b10 f
1M
#4080
0M
#4100
b10 T
b11 f
b10 S
b10 `
b111 G
b111 Z
1M
#4120
0M
#4140
b11 T
b0 G
b0 Z
b111 F
b111 [
b11 S
b11 `
b100 f
1M
#4160
0M
#4180
b100 T
b101 f
b100 S
b100 `
b111 G
b111 Z
1M
#4200
0M
#4220
b101 T
b0 G
b0 Z
b0 F
b0 [
b111 C
b111 \
b101 S
b101 `
b110 f
1M
#4240
0M
#4260
b110 T
b111 f
b110 S
b110 `
b111 G
b111 Z
1M
#4280
0M
#4300
b111 T
0E
b0 G
b0 Z
b111 F
b111 [
b111 S
b111 `
b1000 f
1M
#4320
0M
#4340
b1001 f
0R
b1000 S
b1000 `
b111 G
b111 Z
1M
#4360
0M
#4380
1E
0D
b1001 S
b1001 `
b101 g
b0 f
1M
#4400
0M
#4420
b0 T
b1 f
1R
b0 S
b0 `
b101 Q
b101 a
1M
#4440
0M
#4460
b1 T
b0 G
b0 Z
b0 F
b0 [
b0 C
b0 \
1D
b1 S
b1 `
b10 f
1M
#4480
0M
#4500
b10 T
b11 f
b10 S
b10 `
b111 G
b111 Z
1M
#4520
0M
#4540
b11 T
b0 G
b0 Z
b111 F
b111 [
b11 S
b11 `
b100 f
1M
#4560
0M
#4580
b100 T
b101 f
b100 S
b100 `
b111 G
b111 Z
1M
#4600
0M
#4620
b101 T
b0 G
b0 Z
b0 F
b0 [
b111 C
b111 \
b101 S
b101 `
b110 f
1M
#4640
0M
#4660
b110 T
b111 f
b110 S
b110 `
b111 G
b111 Z
1M
#4680
0M
#4700
b111 T
0E
b0 G
b0 Z
b111 F
b111 [
b111 S
b111 `
b1000 f
1M
#4720
0M
#4740
b1001 f
0R
b1000 S
b1000 `
b111 G
b111 Z
1M
#4760
0M
#4780
1]
1B
1E
0D
b1001 S
b1001 `
b0 g
b0 f
1M
#4800
0M
#4820
0]
b0 T
b1 f
1R
1P
b0 Q
b0 a
b0 S
b0 `
1M
#4840
0M
#4860
b1 T
b0 G
b0 Z
b0 F
b0 [
b0 C
b0 \
1D
1A
b1 S
b1 `
b10 f
1M
#4880
0M
#4900
b10 T
b11 f
b10 S
b10 `
b111 G
b111 Z
1M
#4920
0M
#4940
b11 T
b0 G
b0 Z
b111 F
b111 [
b11 S
b11 `
b100 f
1M
#4960
0M
#4980
b100 T
b101 f
b100 S
b100 `
b111 G
b111 Z
1M
