VGA_UART/dump.vcd
$date
	Tue Jul 23 13:45:23 2024
$end
$version
	Icarus Verilog
$end
$timescale
	1ns
$end
$scope module VGA_tb $end
$var wire 8 ! w_RX_Byte [7:0] $end
$var wire 1 " r2 $end
$var wire 1 # r1 $end
$var wire 1 $ r0 $end
$var wire 1 % g2 $end
$var wire 1 & g1 $end
$var wire 1 ' g0 $end
$var wire 1 ( b2 $end
$var wire 1 ) b1 $end
$var wire 1 * b0 $end
$var wire 1 + V_Sync $end
$var wire 1 , H_Sync $end
$var reg 1 - r_Clock $end
$var reg 1 . r_RX_Serial $end
$scope module inst $end
$var wire 1 - CLK $end
$var wire 1 . RX $end
$var wire 8 / RX_Byte [7:0] $end
$var wire 1 0 S1_A $end
$var wire 1 1 S1_B $end
$var wire 1 2 S1_C $end
$var wire 1 3 S1_D $end
$var wire 1 4 S1_E $end
$var wire 1 5 S1_F $end
$var wire 1 6 S1_G $end
$var wire 1 7 S2_A $end
$var wire 1 8 S2_B $end
$var wire 1 9 S2_C $end
$var wire 1 : S2_D $end
$var wire 1 ; S2_E $end
$var wire 1 < S2_F $end
$var wire 1 = S2_G $end
$var wire 1 , VGA_HS $end
$var wire 1 + VGA_VS $end
$var wire 1 > w_VSync_Porch $end
$var wire 1 ? w_VSync_PG $end
$var wire 1 @ w_VSync $end
$var wire 1 A w_TX_Serial $end
$var wire 1 B w_TX_Active $end
$var wire 1 C w_S2_G $end
$var wire 1 D w_S2_F $end
$var wire 1 E w_S2_E $end
$var wire 1 F w_S2_D $end
$var wire 1 G w_S2_C $end
$var wire 1 H w_S2_B $end
$var wire 1 I w_S2_A $end
$var wire 1 J w_S1_G $end
$var wire 1 K w_S1_F $end
$var wire 1 L w_S1_E $end
$var wire 1 M w_S1_D $end
$var wire 1 N w_S1_C $end
$var wire 1 O w_S1_B $end
$var wire 1 P w_S1_A $end
$var wire 3 Q w_Red [2:0] $end
$var wire 1 R w_RX_DV $end
$var wire 8 S w_RX_Byte [7:0] $end
$var wire 1 T w_HSync_Porch $end
$var wire 1 U w_HSync_PG $end
$var wire 1 V w_HSync $end
$var wire 3 W w_Green [2:0] $end
$var wire 10 X w_CountRow [9:0] $end
$var wire 10 Y w_CountCol [9:0] $end
$var wire 3 Z w_Blue [2:0] $end
$var wire 1 " VGA_R2 $end
$var wire 1 # VGA_R1 $end
$var wire 1 $ VGA_R0 $end
$var wire 1 % VGA_G2 $end
$var wire 1 & VGA_G1 $end
$var wire 1 ' VGA_G0 $end
$var wire 1 ( VGA_B2 $end
$var wire 1 ) VGA_B1 $end
$var wire 1 * VGA_B0 $end
$var wire 1 [ TX $end
$scope module Pattern_GenInst $end
$var wire 1 - CLK $end
$var wire 1 > i_VSync $end
$var wire 1 T i_HSync $end
$var wire 8 \ i_Byte [7:0] $end
$var reg 3 ] Blue [2:0] $end
$var reg 3 ^ Green [2:0] $end
$var reg 3 _ Red [2:0] $end
$var reg 1 U o_HSync_PG $end
$var reg 1 ? o_VSync_PG $end
$upscope $end
$scope module PorchInst $end
$var wire 1 - CLK $end
$var wire 1 > o_V_Sync $end
$var wire 1 T o_H_Sync $end
$var wire 1 @ i_VSync $end
$var wire 1 V i_HSync $end
$var wire 10 ` i_CountRow [9:0] $end
$var wire 10 a i_CountCol [9:0] $end
$upscope $end
$scope module PulseInst $end
$var wire 1 - CLK $end
$var wire 1 @ o_VSync $end
$var wire 1 V o_HSync $end
$var reg 10 b o_CountCol [9:0] $end
$var reg 10 c o_CountRow [9:0] $end
$upscope $end
$scope module UART_RX_Inst $end
$var wire 1 - CLK $end
$var wire 1 . RX $end
$var wire 1 R o_RX_DV $end
$var wire 8 d o_RX_Byte [7:0] $end
$var parameter 3 e CLEANUP $end
$var parameter 32 f CLKS_PER_BIT $end
$var parameter 3 g IDLE $end
$var parameter 3 h RX_DATA_BITS $end
$var parameter 3 i RX_START_BIT $end
$var parameter 3 j RX_STOP_BIT $end
$var reg 3 k r_Bit_Index [2:0] $end
$var reg 8 l r_Clock_Count [7:0] $end
$var reg 8 m r_RX_Byte [7:0] $end
$var reg 1 n r_RX_DV $end
$var reg 3 o r_SM_Main [2:0] $end
$upscope $end
$scope module UART_TX_Inst $end
$var wire 1 - CLK $end
$var wire 8 p i_TX_Byte [7:0] $end
$var wire 1 R i_TX_DV $end
$var wire 1 q o_TX_Done $end
$var wire 1 B o_TX_Active $end
$var parameter 3 r CLEANUP $end
$var parameter 32 s CLKS_PER_BIT $end
$var parameter 3 t IDLE $end
$var parameter 3 u TX_DATA_BITS $end
$var parameter 3 v TX_START_BIT $end
$var parameter 3 w TX_STOP_BIT $end
$var reg 1 A TX $end
$var reg 3 x r_Bit_Index [2:0] $end
$var reg 8 y r_Clock_Count [7:0] $end
$var reg 3 z r_SM_Main [2:0] $end
$var reg 1 B r_TX_Active $end
$var reg 8 { r_TX_Data [7:0] $end
$var reg 1 | r_TX_Done $end
$upscope $end
$scope module binary_to_7seg_Inst1 $end
$var wire 1 - CLK $end
$var wire 4 } binary_num [3:0] $end
$var wire 1 J o_S1_G $end
$var wire 1 K o_S1_F $end
$var wire 1 L o_S1_E $end
$var wire 1 M o_S1_D $end
$var wire 1 N o_S1_C $end
$var wire 1 O o_S1_B $end
$var wire 1 P o_S1_A $end
$var reg 7 ~ hex_encoding [6:0] $end
$upscope $end
$scope module binary_to_7seg_Inst2 $end
$var wire 1 - CLK $end
$var wire 4 !" binary_num [3:0] $end
$var wire 1 C o_S1_G $end
$var wire 1 D o_S1_F $end
$var wire 1 E o_S1_E $end
$var wire 1 F o_S1_D $end
$var wire 1 G o_S1_C $end
$var wire 1 H o_S1_B $end
$var wire 1 I o_S1_A $end
$var reg 7 "" hex_encoding [6:0] $end
$upscope $end
$upscope $end
$scope task UART_WRITE_BYTE $end
$var reg 8 #" i_Data [7:0] $end
$var integer 32 $" ii [31:0] $end
$upscope $end
$upscope $end
$enddefinitions $end
$comment Show the parameter values. $end
$dumpall
b11 w
b1 v
b10 u
b0 t
b11011001 s
b100 r
b11 j
b1 i
b10 h
b0 g
b11011001 f
b100 e
$end
#0
$dumpvars
bx $"
bx #"
b0 ""
b0 !"
b0 ~
b0 }
0|
b0 {
b0 z
b0 y
b0 x
0q
b0 p
b0 o
0n
b0 m
b0 l
b0 k
b0 d
b0 c
b0 b
b0 a
b0 `
b0 _
b0 ^
b0 ]
b0 \
1[
b0 Z
b0 Y
b0 X
b0 W
1V
0U
1T
b0 S
0R
b0 Q
0P
0O
0N
0M
0L
0K
0J
0I
0H
0G
0F
0E
0D
0C
0B
xA
1@
0?
1>
1=
1<
1;
1:
19
18
17
16
15
14
13
12
11
10
b0 /
1.
0-
0,
0+
0*
0)
0(
0'
0&
0%
0$
0#
0"
b0 !
$end
#20
00
01
02
03
04
05
07
08
09
0:
0;
0<
1P
1O
1N
1M
1L
1K
1I
1H
1G
1F
1E
1D
0.
1A
b1111110 ~
b1111110 ""
b1 Y
b1 a
b1 b
1+
1?
1,
1U
b1 #"
1-
#40
0-
#60
b10 Y
b10 a
b10 b
b1 o
1-
#80
0-
#100
b1 l
b11 Y
b11 a
b11 b
1-
#120
0-
#140
b100 Y
b100 a
b100 b
b10 l
1-
#160
0-
#180
b11 l
b101 Y
b101 a
b101 b
1-
#200
0-
#220
b110 Y
b110 a
b110 b
b100 l
1-
#240
0-
#260
b101 l
b111 Y
b111 a
b111 b
1-
#280
0-
#300
b1000 Y
b1000 a
b1000 b
b110 l
1-
#320
0-
#340
b111 l
b1001 Y
b1001 a
b1001 b
1-
#360
0-
#380
b1010 Y
b1010 a
b1010 b
b1000 l
1-
#400
0-
#420
b1001 l
b1011 Y
b1011 a
b1011 b
1-
#440
0-
#460
b1100 Y
b1100 a
b1100 b
b1010 l
1-
#480
0-
#500
b1011 l
b1101 Y
b1101 a
b1101 b
1-
#520
0-
#540
b1110 Y
b1110 a
b1110 b
b1100 l
1-
#560
0-
#580
b1101 l
b1111 Y
b1111 a
b1111 b
1-
#600
0-
#620
b10000 Y
b10000 a
b10000 b
b1110 l
1-
#640
0-
#660
b1111 l
b10001 Y
b10001 a
b10001 b
1-
#680
0-
#700
b10010 Y
b10010 a
b10010 b
b10000 l
1-
#720
0-
#740
b10001 l
b10011 Y
b10011 a
b10011 b
1-
#760
0-
#780
b10100 Y
b10100 a
b10100 b
b10010 l
1-
#800
0-
#820
b10011 l
b10101 Y
b10101 a
b10101 b
1-
#840
0-
#860
b10110 Y
b10110 a
b10110 b
b10100 l
1-
#880
0-
#900
b10101 l
b10111 Y
b10111 a
b10111 b
1-
#920
0-
#940
b11000 Y
b11000 a
b11000 b
b10110 l
1-
#960
0-
#980
b10111 l
b11001 Y
b11001 a
b11001 b
1-
#1000
0-
#1020
b11010 Y
b11010 a
b11010 b
b11000 l
1-
#1040
0-
#1060
b11001 l
b11011 Y
b11011 a
b11011 b
1-
#1080
0-
#1100
b11100 Y
b11100 a
b11100 b
b11010 l
1-
#1120
0-
#1140
b11011 l
b11101 Y
b11101 a
b11101 b
1-
#1160
0-
#1180
b11110 Y
b11110 a
b11110 b
b11100 l
1-
#1200
0-
#1220
b11101 l
b11111 Y
b11111 a
b11111 b
1-
#1240
0-
#1260
b100000 Y
b100000 a
b100000 b
b11110 l
1-
#1280
0-
#1300
b11111 l
b100001 Y
b100001 a
b100001 b
1-
#1320
0-
#1340
b100010 Y
b100010 a
b100010 b
b100000 l
1-
#1360
0-
#1380
b100001 l
b100011 Y
b100011 a
b100011 b
1-
#1400
0-
#1420
b100100 Y
b100100 a
b100100 b
b100010 l
1-
#1440
0-
#1460
b100011 l
b100101 Y
b100101 a
b100101 b
1-
#1480
0-
#1500
b100110 Y
b100110 a
b100110 b
b100100 l
1-
#1520
0-
#1540
b100101 l
b100111 Y
b100111 a
b100111 b
1-
#1560
0-
#1580
b101000 Y
b101000 a
b101000 b
b100110 l
1-
#1600
0-
#1620
b100111 l
b101001 Y
b101001 a
b101001 b
1-
#1640
0-
#1660
b101010 Y
b101010 a
b101010 b
b101000 l
1-
#1680
0-
#1700
b101001 l
b101011 Y
b101011 a
b101011 b
1-
#1720
0-
#1740
b101100 Y
b101100 a
b101100 b
b101010 l
1-
#1760
0-
#1780
b101011 l
b101101 Y
b101101 a
b101101 b
1-
#1800
0-
#1820
b101110 Y
b101110 a
b101110 b
b101100 l
1-
#1840
0-
#1860
b101101 l
b101111 Y
b101111 a
b101111 b
1-
#1880
0-
#1900
b110000 Y
b110000 a
b110000 b
b101110 l
1-
#1920
0-
#1940
b101111 l
b110001 Y
b110001 a
b110001 b
1-
#1960
0-
#1980
b110010 Y
b110010 a
b110010 b
b110000 l
1-
#2000
0-
#2020
b110001 l
b110011 Y
b110011 a
b110011 b
1-
#2040
0-
#2060
b110100 Y
b110100 a
b110100 b
b110010 l
1-
#2080
0-
#2100
b110011 l
b110101 Y
b110101 a
b110101 b
1-
#2120
0-
#2140
b110110 Y
b110110 a
b110110 b
b110100 l
1-
#2160
0-
#2180
b110101 l
b110111 Y
b110111 a
b110111 b
1-
#2200
0-
#2220
b111000 Y
b111000 a
b111000 b
b110110 l
1-
#2240
0-
#2260
b110111 l
b111001 Y
b111001 a
b111001 b
1-
#2280
0-
#2300
b111010 Y
b111010 a
b111010 b
b111000 l
1-
#2320
0-
#2340
b111001 l
b111011 Y
b111011 a
b111011 b
1-
#2360
0-
#2380
b111100 Y
b111100 a
b111100 b
b111010 l
1-
#2400
0-
#2420
b111011 l
b111101 Y
b111101 a
b111101 b
1-
#2440
0-
#2460
b111110 Y
b111110 a
b111110 b
b111100 l
1-
#2480
0-
#2500
b111101 l
b111111 Y
b111111 a
b111111 b
1-
#2520
0-
#2540
b1000000 Y
b1000000 a
b1000000 b
b111110 l
1-
#2560
0-
#2580
b111111 l
b1000001 Y
b1000001 a
b1000001 b
1-
#2600
0-
#2620
b1000010 Y
b1000010 a
b1000010 b
b1000000 l
1-
#2640
0-
#2660
b1000001 l
b1000011 Y
b1000011 a
b1000011 b
1-
#2680
0-
#2700
b1000100 Y
b1000100 a
b1000100 b
b1000010 l
1-
#2720
0-
#2740
b1000011 l
b1000101 Y
b1000101 a
b1000101 b
1-
#2760
0-
#2780
b1000110 Y
b1000110 a
b1000110 b
b1000100 l
1-
#2800
0-
#2820
b1000101 l
b1000111 Y
b1000111 a
b1000111 b
1-
#2840
0-
#2860
b1001000 Y
b1001000 a
b1001000 b
b1000110 l
1-
#2880
0-
#2900
b1000111 l
b1001001 Y
b1001001 a
b1001001 b
1-
#2920
0-
#2940
b1001010 Y
b1001010 a
b1001010 b
b1001000 l
1-
#2960
0-
#2980
b1001001 l
b1001011 Y
b1001011 a
b1001011 b
1-
#3000
0-
#3020
b1001100 Y
b1001100 a
b1001100 b
b1001010 l
1-
#3040
0-
#3060
b1001011 l
b1001101 Y
b1001101 a
b1001101 b
1-
#3080
0-
#3100
b1001110 Y
b1001110 a
b1001110 b
b1001100 l
1-
#3120
0-
#3140
b1001101 l
b1001111 Y
b1001111 a
b1001111 b
1-
#3160
0-
#3180
b1010000 Y
b1010000 a
b1010000 b
b1001110 l
1-
#3200
0-
#3220
b1001111 l
b1010001 Y
b1010001 a
b1010001 b
1-
#3240
0-
#3260
b1010010 Y
b1010010 a
b1010010 b
b1010000 l
1-
#3280
0-
#3300
b1010001 l
b1010011 Y
b1010011 a
b1010011 b
1-
#3320
0-
#3340
b1010100 Y
b1010100 a
b1010100 b
b1010010 l
1-
#3360
0-
#3380
b1010011 l
b1010101 Y
b1010101 a
b1010101 b
1-
#3400
0-
#3420
b1010110 Y
b1010110 a
b1010110 b
b1010100 l
1-
#3440
0-
#3460
b1010101 l
b1010111 Y
b1010111 a
b1010111 b
1-
#3480
0-
#3500
b1011000 Y
b1011000 a
b1011000 b
b1010110 l
1-
#3520
0-
#3540
b1010111 l
b1011001 Y
b1011001 a
b1011001 b
1-
#3560
0-
#3580
b1011010 Y
b1011010 a
b1011010 b
b1011000 l
1-
#3600
0-
#3620
b1011001 l
b1011011 Y
b1011011 a
b1011011 b
1-
#3640
0-
#3660
b1011100 Y
b1011100 a
b1011100 b
b1011010 l
1-
#3680
0-
#3700
b1011011 l
b1011101 Y
b1011101 a
b1011101 b
1-
#3720
0-
#3740
b1011110 Y
b1011110 a
b1011110 b
b1011100 l
1-
#3760
0-
#3780
b1011101 l
b1011111 Y
b1011111 a
b1011111 b
1-
#3800
0-
#3820
b1100000 Y
b1100000 a
b1100000 b
b1011110 l
1-
#3840
0-
#3860
b1011111 l
b1100001 Y
b1100001 a
b1100001 b
1-
#3880
0-
#3900
b1100010 Y
b1100010 a
b1100010 b
b1100000 l
1-
#3920
0-
#3940
b1100001 l
b1100011 Y
b1100011 a
b1100011 b
1-
#3960
0-
#3980
b1100100 Y
b1100100 a
b1100100 b
b1100010 l
1-
#4000
0-
#4020
b1100011 l
b1100101 Y
b1100101 a
b1100101 b
1-
#4040
0-
#4060
b1100110 Y
b1100110 a
b1100110 b
b1100100 l
1-
#4080
0-
#4100
b1100101 l
b1100111 Y
b1100111 a
b1100111 b
1-
#4120
0-
#4140
b1101000 Y
b1101000 a
b1101000 b
b1100110 l
1-
#4160
0-
#4180
b1100111 l
b1101001 Y
b1101001 a
b1101001 b
1-
#4200
0-
#4220
b1101010 Y
b1101010 a
b1101010 b
b1101000 l
1-
#4240
0-
#4260
b1101001 l
b1101011 Y
b1101011 a
b1101011 b
1-
#4280
0-
#4300
b1101100 Y
b1101100 a
b1101100 b
b1101010 l
1-
#4320
0-
#4340
b1101011 l
b1101101 Y
b1101101 a
b1101101 b
1-
#4360
0-
#4380
b1101110 Y
b1101110 a
b1101110 b
b1101100 l
1-
#4400
0-
#4420
b10 o
b0 l
b1101111 Y
b1101111 a
b1101111 b
1-
#4440
0-
#4460
b1110000 Y
b1110000 a
b1110000 b
b1 l
1-
#4480
0-
#4500
b10 l
b1110001 Y
b1110001 a
b1110001 b
1-
#4520
0-
#4540
b1110010 Y
b1110010 a
b1110010 b
b11 l
1-
#4560
0-
#4580
b100 l
b1110011 Y
b1110011 a
b1110011 b
1-
#4600
0-
#4620
b1110100 Y
b1110100 a
b1110100 b
b101 l
1-
#4640
0-
#4660
b110 l
b1110101 Y
b1110101 a
b1110101 b
1-
#4680
0-
#4700
b1110110 Y
b1110110 a
b1110110 b
b111 l
1-
#4720
0-
#4740
b1000 l
b1110111 Y
b1110111 a
b1110111 b
1-
#4760
0-
#4780
b1111000 Y
b1111000 a
b1111000 b
b1001 l
1-
#4800
0-
#4820
b1010 l
b1111001 Y
b1111001 a
b1111001 b
1-
#4840
0-
#4860
b1111010 Y
b1111010 a
b1111010 b
b1011 l
1-
#4880
0-
#4900
b1100 l
b1111011 Y
b1111011 a
b1111011 b
1-
#4920
0-
#4940
b1111100 Y
b1111100 a
b1111100 b
b1101 l
1-
#4960
0-
#4980
b1110 l
b1111101 Y
b1111101 a
b1111101 b
1-
#5000
0-
#5020
b1111110 Y
b1111110 a
b1111110 b
b1111 l
1-
#5040
0-
#5060
b10000 l
b1111111 Y
b1111111 a
b1111111 b
1-
#5080
0-
#5100
b10000000 Y
b10000000 a
b10000000 b
b10001 l
1-
#5120
0-
#5140
b10010 l
b10000001 Y
b10000001 a
b10000001 b
1-
#5160
0-
#5180
b10000010 Y
b10000010 a
b10000010 b
b10011 l
1-
#5200
0-
#5220
b10100 l
b10000011 Y
b10000011 a
b10000011 b
1-
#5240
0-
#5260
b10000100 Y
b10000100 a
b10000100 b
b10101 l
1-
#5280
0-
#5300
b10110 l
b10000101 Y
b10000101 a
b10000101 b
1-
#5320
0-
#5340
b10000110 Y
b10000110 a
b10000110 b
b10111 l
1-
#5360
0-
#5380
b11000 l
b10000111 Y
b10000111 a
b10000111 b
1-
#5400
0-
#5420
b10001000 Y
b10001000 a
b10001000 b
b11001 l
1-
#5440
0-
#5460
b11010 l
b10001001 Y
b10001001 a
b10001001 b
1-
#5480
0-
#5500
b10001010 Y
b10001010 a
b10001010 b
b11011 l
1-
#5520
0-
#5540
b11100 l
b10001011 Y
b10001011 a
b10001011 b
1-
#5560
0-
#5580
b10001100 Y
b10001100 a
b10001100 b
b11101 l
1-
#5600
0-
#5620
b11110 l
b10001101 Y
b10001101 a
b10001101 b
1-
#5640
0-
#5660
b10001110 Y
b10001110 a
b10001110 b
b11111 l
1-
#5680
0-
#5700
b100000 l
b10001111 Y
b10001111 a
b10001111 b
1-
#5720
0-
#5740
b10010000 Y
b10010000 a
b10010000 b
b100001 l
1-
#5760
0-
#5780
b100010 l
b10010001 Y
b10010001 a
b10010001 b
1-
#5800
0-
#5820
b10010010 Y
b10010010 a
b10010010 b
b100011 l
1-
#5840
0-
#5860
b100100 l
b10010011 Y
b10010011 a
b10010011 b
1-
#5880
0-
#5900
b10010100 Y
b10010100 a
b10010100 b
b100101 l
1-
#5920
0-
#5940
b100110 l
b10010101 Y
b10010101 a
b10010101 b
1-
#5960
0-
#5980
b10010110 Y
b10010110 a
b10010110 b
b100111 l
1-
#6000
0-
#6020
b101000 l
b10010111 Y
b10010111 a
b10010111 b
1-
#6040
0-
#6060
b10011000 Y
b10011000 a
b10011000 b
b101001 l
1-
#6080
0-
#6100
b101010 l
b10011001 Y
b10011001 a
b10011001 b
1-
#6120
0-
#6140
b10011010 Y
b10011010 a
b10011010 b
b101011 l
1-
#6160
0-
#6180
b101100 l
b10011011 Y
b10011011 a
b10011011 b
1-
#6200
0-
#6220
b10011100 Y
b10011100 a
b10011100 b
b101101 l
1-
#6240
0-
#6260
b101110 l
b10011101 Y
b10011101 a
b10011101 b
1-
#6280
0-
#6300
b10011110 Y
b10011110 a
b10011110 b
b101111 l
1-
#6320
0-
#6340
b110000 l
b10011111 Y
b10011111 a
b10011111 b
1-
#6360
0-
#6380
b10100000 Y
b10100000 a
b10100000 b
b110001 l
1-
#6400
0-
#6420
b110010 l
b10100001 Y
b10100001 a
b10100001 b
1-
#6440
0-
#6460
b10100010 Y
b10100010 a
b10100010 b
b110011 l
1-
#6480
0-
#6500
b110100 l
b10100011 Y
b10100011 a
b10100011 b
1-
#6520
0-
#6540
b10100100 Y
b10100100 a
b10100100 b
b110101 l
1-
#6560
0-
#6580
b110110 l
b10100101 Y
b10100101 a
b10100101 b
1-
#6600
0-
#6620
b10100110 Y
b10100110 a
b10100110 b
b110111 l
1-
#6640
0-
#6660
b111000 l
b10100111 Y
b10100111 a
b10100111 b
1-
#6680
0-
#6700
b10101000 Y
b10101000 a
b10101000 b
b111001 l
1-
#6720
0-
#6740
b111010 l
b10101001 Y
b10101001 a
b10101001 b
1-
#6760
0-
#6780
b10101010 Y
b10101010 a
b10101010 b
b111011 l
1-
#6800
0-
#6820
b111100 l
b10101011 Y
b10101011 a
b10101011 b
1-
#6840
0-
#6860
b10101100 Y
b10101100 a
b10101100 b
b111101 l
1-
#6880
0-
#6900
b111110 l
b10101101 Y
b10101101 a
b10101101 b
1-
#6920
0-
#6940
b10101110 Y
b10101110 a
b10101110 b
b111111 l
1-
#6960
0-
#6980
b1000000 l
b10101111 Y
b10101111 a
b10101111 b
1-
#7000
0-
#7020
b10110000 Y
b10110000 a
b10110000 b
b1000001 l
1-
#7040
0-
#7060
b1000010 l
b10110001 Y
b10110001 a
b10110001 b
1-
#7080
0-
#7100
b10110010 Y
b10110010 a
b10110010 b
b1000011 l
1-
#7120
0-
#7140
b1000100 l
b10110011 Y
b10110011 a
b10110011 b
1-
#7160
0-
#7180
b10110100 Y
b10110100 a
b10110100 b
b1000101 l
1-
#7200
0-
#7220
b1000110 l
b10110101 Y
b10110101 a
b10110101 b
1-
#7240
0-
#7260
b10110110 Y
b10110110 a
b10110110 b
b1000111 l
1-
#7280
0-
#7300
b1001000 l
b10110111 Y
b10110111 a
b10110111 b
1-
#7320
0-
#7340
b10111000 Y
b10111000 a
b10111000 b
b1001001 l
1-
#7360
0-
#7380
b1001010 l
b10111001 Y
b10111001 a
b10111001 b
1-
#7400
0-
#7420
b10111010 Y
b10111010 a
b10111010 b
b1001011 l
1-
#7440
0-
#7460
b1001100 l
b10111011 Y
b10111011 a
b10111011 b
1-
#7480
0-
#7500
b10111100 Y
b10111100 a
b10111100 b
b1001101 l
1-
#7520
0-
#7540
b1001110 l
b10111101 Y
b10111101 a
b10111101 b
1-
#7560
0-
#7580
b10111110 Y
b10111110 a
b10111110 b
b1001111 l
1-
#7600
0-
#7620
b1010000 l
b10111111 Y
b10111111 a
b10111111 b
1-
#7640
0-
#7660
b11000000 Y
b11000000 a
b11000000 b
b1010001 l
1-
#7680
0-
#7700
b1010010 l
b11000001 Y
b11000001 a
b11000001 b
1-
#7720
0-
#7740
b11000010 Y
b11000010 a
b11000010 b
b1010011 l
1-
#7760
0-
#7780
b1010100 l
b11000011 Y
b11000011 a
b11000011 b
1-
#7800
0-
#7820
b11000100 Y
b11000100 a
b11000100 b
b1010101 l
1-
#7840
0-
#7860
b1010110 l
b11000101 Y
b11000101 a
b11000101 b
1-
#7880
0-
#7900
b11000110 Y
b11000110 a
b11000110 b
b1010111 l
1-
#7920
0-
#7940
b1011000 l
b11000111 Y
b11000111 a
b11000111 b
1-
#7960
0-
#7980
b11001000 Y
b11001000 a
b11001000 b
b1011001 l
1-
#8000
0-
#8020
b1011010 l
b11001001 Y
b11001001 a
b11001001 b
1-
#8040
0-
#8060
b11001010 Y
b11001010 a
b11001010 b
b1011011 l
1-
#8080
0-
#8100
b1011100 l
b11001011 Y
b11001011 a
b11001011 b
1-
#8120
0-
#8140
b11001100 Y
b11001100 a
b11001100 b
b1011101 l
1-
#8160
0-
#8180
b1011110 l
b11001101 Y
b11001101 a
b11001101 b
1-
#8200
0-
#8220
b11001110 Y
b11001110 a
b11001110 b
b1011111 l
1-
#8240
0-
#8260
b1100000 l
b11001111 Y
b11001111 a
b11001111 b
1-
#8280
0-
#8300
b11010000 Y
b11010000 a
b11010000 b
b1100001 l
1-
#8320
0-
#8340
b1100010 l
b11010001 Y
b11010001 a
b11010001 b
1-
#8360
0-
#8380
b11010010 Y
b11010010 a
b11010010 b
b1100011 l
1-
#8400
0-
#8420
b1100100 l
b11010011 Y
b11010011 a
b11010011 b
1-
#8440
0-
#8460
b11010100 Y
b11010100 a
b11010100 b
b1100101 l
1-
#8480
0-
#8500
b1100110 l
b11010101 Y
b11010101 a
b11010101 b
1-
#8520
0-
#8540
b11010110 Y
b11010110 a
b11010110 b
b1100111 l
1-
#8560
0-
#8580
b1101000 l
b11010111 Y
b11010111 a
b11010111 b
1-
#8600
0-
#8620
b11011000 Y
b11011000 a
b11011000 b
b1101001 l
1-
#8640
0-
#8660
b1101010 l
b11011001 Y
b11011001 a
b11011001 b
1-
#8680
0-
#8700
b11011010 Y
b11011010 a
b11011010 b
b1101011 l
1-
#8720
0-
#8740
b1101100 l
b11011011 Y
b11011011 a
b11011011 b
1-
#8760
0-
#8780
b11011100 Y
b11011100 a
b11011100 b
b1101101 l
1-
#8800
0-
#8820
b1101110 l
b11011101 Y
b11011101 a
b11011101 b
1-
#8840
0-
#8860
b11011110 Y
b11011110 a
b11011110 b
b1101111 l
1-
#8880
0-
#8900
b1110000 l
b11011111 Y
b11011111 a
b11011111 b
1-
#8920
0-
#8940
b11100000 Y
b11100000 a
b11100000 b
b1110001 l
1-
#8960
0-
#8980
b1110010 l
b11100001 Y
b11100001 a
b11100001 b
1-
#9000
0-
#9020
b11100010 Y
b11100010 a
b11100010 b
b1110011 l
1-
#9040
0-
#9060
b1110100 l
b11100011 Y
b11100011 a
b11100011 b
1-
#9080
0-
#9100
b11100100 Y
b11100100 a
b11100100 b
b1110101 l
1-
#9120
0-
#9140
b1110110 l
b11100101 Y
b11100101 a
b11100101 b
1-
#9160
0-
#9180
b11100110 Y
b11100110 a
b11100110 b
b1110111 l
1-
#9200
0-
#9220
b1111000 l
b11100111 Y
b11100111 a
b11100111 b
1-
#9240
0-
#9260
b11101000 Y
b11101000 a
b11101000 b
b1111001 l
1-
#9280
0-
#9300
b1111010 l
b11101001 Y
b11101001 a
b11101001 b
1-
#9320
0-
#9340
b11101010 Y
b11101010 a
b11101010 b
b1111011 l
1-
#9360
0-
#9380
b1111100 l
b11101011 Y
b11101011 a
b11101011 b
1-
#9400
0-
#9420
b11101100 Y
b11101100 a
b11101100 b
b1111101 l
1-
#9440
0-
#9460
b1111110 l
b11101101 Y
b11101101 a
b11101101 b
1-
#9480
0-
#9500
b11101110 Y
b11101110 a
b11101110 b
b1111111 l
1-
#9520
0-
#9540
b10000000 l
b11101111 Y
b11101111 a
b11101111 b
1-
#9560
0-
#9580
b11110000 Y
b11110000 a
b11110000 b
b10000001 l
1-
#9600
0-
#9620
b10000010 l
b11110001 Y
b11110001 a
b11110001 b
1-
1.
b0 $"
#9640
0-
#9660
b11110010 Y
b11110010 a
b11110010 b
b10000011 l
1-
#9680
0-
#9700
b10000100 l
b11110011 Y
b11110011 a
b11110011 b
1-
#9720
0-
#9740
b11110100 Y
b11110100 a
b11110100 b
b10000101 l
1-
#9760
0-
#9780
b10000110 l
b11110101 Y
b11110101 a
b11110101 b
1-
#9800
0-
#9820
b11110110 Y
b11110110 a
b11110110 b
b10000111 l
1-
#9840
0-
#9860
b10001000 l
b11110111 Y
b11110111 a
b11110111 b
1-
#9880
0-
#9900
b11111000 Y
b11111000 a
b11111000 b
b10001001 l
1-
#9920
0-
#9940
b10001010 l
b11111001 Y
b11111001 a
b11111001 b
1-
#9960
0-
#9980
b11111010 Y
b11111010 a
b11111010 b
b10001011 l
1-
#10000
0-
#10020
b10001100 l
b11111011 Y
b11111011 a
b11111011 b
1-
#10040
0-
#10060
b11111100 Y
b11111100 a
b11111100 b
b10001101 l
1-
#10080
0-
#10100
b10001110 l
b11111101 Y
b11111101 a
b11111101 b
1-
#10120
0-
#10140
b11111110 Y
b11111110 a
b11111110 b
b10001111 l
1-
#10160
0-
#10180
b10010000 l
b11111111 Y
b11111111 a
b11111111 b
1-
#10200
0-
#10220
b100000000 Y
b100000000 a
b100000000 b
b10010001 l
1-
#10240
0-
#10260
b10010010 l
b100000001 Y
b100000001 a
b100000001 b
1-
#10280
0-
#10300
b100000010 Y
b100000010 a
b100000010 b
b10010011 l
1-
#10320
0-
#10340
b10010100 l
b100000011 Y
b100000011 a
b100000011 b
1-
#10360
0-
#10380
b100000100 Y
b100000100 a
b100000100 b
b10010101 l
1-
#10400
0-
#10420
b10010110 l
b100000101 Y
b100000101 a
b100000101 b
1-
#10440
0-
#10460
b100000110 Y
b100000110 a
b100000110 b
b10010111 l
1-
#10480
0-
#10500
b10011000 l
b100000111 Y
b100000111 a
b100000111 b
1-
#10520
0-
#10540
b100001000 Y
b100001000 a
b100001000 b
b10011001 l
1-
#10560
0-
#10580
b10011010 l
b100001001 Y
b100001001 a
b100001001 b
1-
#10600
0-
#10620
b100001010 Y
b100001010 a
b100001010 b
b10011011 l
1-
#10640
0-
#10660
b10011100 l
b100001011 Y
b100001011 a
b100001011 b
1-
#10680
0-
#10700
b100001100 Y
b100001100 a
b100001100 b
b10011101 l
1-
#10720
0-
#10740
b10011110 l
b100001101 Y
b100001101 a
b100001101 b
1-
#10760
0-
#10780
b100001110 Y
b100001110 a
b100001110 b
b10011111 l
1-
#10800
0-
#10820
b10100000 l
b100001111 Y
b100001111 a
b100001111 b
1-
#10840
0-
#10860
b100010000 Y
b100010000 a
b100010000 b
b10100001 l
1-
#10880
0-
#10900
b10100010 l
b100010001 Y
b100010001 a
b100010001 b
1-
#10920
0-
#10940
b100010010 Y
b100010010 a
b100010010 b
b10100011 l
1-
#10960
0-
#10980
b10100100 l
b100010011 Y
b100010011 a
b100010011 b
1-
#11000
0-
#11020
b100010100 Y
b100010100 a
b100010100 b
b10100101 l
1-
#11040
0-
